…
``` r
bind_cols(
  versions,
  pull(versions, string) %>%
    semver::parse_version() %>%
    as.data.frame()
) %>%
  arrange(major, minor, patch) %>%
  mutate(string = factor(string, levels = unique(string))) -> versions

versions
```

    ## # A tibble: 11,157 x 6
    ##    string major minor patch prerelease build
    ##    <fct>  <int> <int> <int> <chr>      <chr>
    ##  1 1.2.0      1     2     0 ""         ""   
    ##  2 1.2.0      1     2     0 ""         ""   
    ##  3 1.2.5      1     2     5 ""         ""   
    ##  4 1.2.5      1     2     5 ""         ""   
    ##  5 1.2.5      1     2     5 ""         ""   
    ##  6 1.2.5      1     2     5 ""         ""   
    ##  7 1.2.5      1     2     5 ""         ""   
    ##  8 1.2.5      1     2     5 ""         ""   
    ##  9 1.2.5      1     2     5 ""         ""   
    ## 10 1.2.5      1     2     5 ""         ""   
    ## # ... with 11,147 more rows
…
unlink(td, recursive = TRUE) # cleanup the git repo we downloaded

memcached_releases
```

    ## # A tibble: 49 x 2
    ##    string release_year
    ##    <chr>         <dbl>
    ##  1 1.5.6          2018
    ##  2 1.5.5          2018
    ##  3 1.5.4          2017
    ##  4 1.5.3          2017
    ##  5 1.5.2          2017
    ##  6 1.5.1          2017
    ##  7 1.5.0          2017
    ##  8 1.4.39         2017
    ##  9 1.4.38         2017
    ## 10 1.4.37         2017
    ## # ... with 39 more rows
…
